{
  "description": "",
  "layout": [
    {
      "h": 3,
      "i": "29e4d98a-8506-4626-9faf-d6e4880f6a67",
      "moved": false,
      "static": false,
      "w": 6,
      "x": 6,
      "y": 0
    },
    {
      "h": 3,
      "i": "828065d5-be36-44ae-a500-6ef1993bae66",
      "moved": false,
      "static": false,
      "w": 6,
      "x": 0,
      "y": 0
    }
  ],
  "name": "",
  "tags": [],
  "title": "Cpass Service",
  "uploadedGrafana": false,
  "variables": {},
  "widgets": [
    {
      "description": "",
      "fillSpans": false,
      "id": "828065d5-be36-44ae-a500-6ef1993bae66",
      "isStacked": false,
      "nullZeroValues": "zero",
      "opacity": "1",
      "panelTypes": "graph",
      "query": {
        "builder": {
          "queryData": [
            {
              "aggregateAttribute": {
                "dataType": "float64",
                "id": "aws_ec2_cpuutilization_average--float64----true",
                "isColumn": true,
                "isJSON": false,
                "key": "aws_ec2_cpuutilization_average",
                "type": ""
              },
              "aggregateOperator": "noop",
              "dataSource": "metrics",
              "disabled": false,
              "expression": "A",
              "filters": {
                "items": [
                  {
                    "id": "849e0b8c",
                    "key": {
                      "dataType": "string",
                      "id": "dimension_AutoScalingGroupName--string--tag--false",
                      "isColumn": false,
                      "isJSON": false,
                      "key": "dimension_AutoScalingGroupName",
                      "type": "tag"
                    },
                    "op": "=",
                    "value": "awseb-e-795t3wrwa5-stack-AWSEBAutoScalingGroup-0ND7evSY36Tq"
                  }
                ],
                "op": "AND"
              },
              "groupBy": [],
              "having": [],
              "legend": "",
              "limit": null,
              "orderBy": [],
              "queryName": "A",
              "reduceTo": "sum",
              "stepInterval": 60
            }
          ],
          "queryFormulas": []
        },
        "clickhouse_sql": [
          {
            "disabled": false,
            "legend": "",
            "name": "A",
            "query": ""
          }
        ],
        "id": "1dc5736e-eb26-4c68-9230-3ac30da08d64",
        "promql": [
          {
            "disabled": false,
            "legend": "",
            "name": "A",
            "query": ""
          }
        ],
        "queryType": "builder"
      },
      "thresholds": [],
      "timePreferance": "GLOBAL_TIME",
      "title": "Average CPU Utilization",
      "yAxisUnit": "percent"
    },
    {
      "description": "",
      "fillSpans": false,
      "id": "29e4d98a-8506-4626-9faf-d6e4880f6a67",
      "isStacked": false,
      "nullZeroValues": "zero",
      "opacity": "1",
      "panelTypes": "graph",
      "query": {
        "clickhouse_sql": [
          {
            "name": "A",
            "legend": "",
            "disabled": false,
            "query": ""
          }
        ],
        "promql": [
          {
            "name": "A",
            "query": "",
            "legend": "",
            "disabled": false
          }
        ],
        "builder": {
          "queryData": [
            {
              "dataSource": "metrics",
              "queryName": "A",
              "aggregateOperator": "noop",
              "aggregateAttribute": {
                "dataType": "float64",
                "id": "aws_ec2_network_in_average--float64----true",
                "isColumn": true,
                "isJSON": false,
                "key": "aws_ec2_network_in_average",
                "type": ""
              },
              "filters": {
                "items": [
                  {
                    "id": "e832a955",
                    "key": {
                      "key": "dimension_AutoScalingGroupName",
                      "dataType": "string",
                      "type": "tag",
                      "isColumn": false,
                      "isJSON": false,
                      "id": "dimension_AutoScalingGroupName--string--tag--false"
                    },
                    "op": "=",
                    "value": "awseb-e-795t3wrwa5-stack-AWSEBAutoScalingGroup-0ND7evSY36Tq"
                  }
                ],
                "op": "AND"
              },
              "expression": "A",
              "disabled": false,
              "having": [],
              "stepInterval": 1980,
              "limit": null,
              "orderBy": [],
              "groupBy": [],
              "legend": "",
              "reduceTo": "sum"
            },
            {
              "dataSource": "metrics",
              "queryName": "B",
              "aggregateOperator": "noop",
              "aggregateAttribute": {
                "dataType": "float64",
                "id": "aws_ec2_network_out_average--float64----true",
                "isColumn": true,
                "isJSON": false,
                "key": "aws_ec2_network_out_average",
                "type": ""
              },
              "filters": {
                "items": [
                  {
                    "id": "1447edf6",
                    "key": {
                      "key": "dimension_AutoScalingGroupName",
                      "dataType": "string",
                      "type": "tag",
                      "isColumn": false,
                      "isJSON": false,
                      "id": "dimension_AutoScalingGroupName--string--tag--false"
                    },
                    "op": "=",
                    "value": "awseb-e-795t3wrwa5-stack-AWSEBAutoScalingGroup-0ND7evSY36Tq"
                  }
                ],
                "op": "AND"
              },
              "expression": "B",
              "disabled": false,
              "having": [],
              "stepInterval": 1980,
              "limit": null,
              "orderBy": [],
              "groupBy": [],
              "legend": "",
              "reduceTo": "sum"
            }
          ],
          "queryFormulas": []
        },
        "id": "1dc5736e-eb26-4c68-9230-3ac30da08d64",
        "queryType": "builder"
      },
      "thresholds": [],
      "timePreferance": "GLOBAL_TIME",
      "title": "Network In/Out",
      "yAxisUnit": "none"
    }
  ]
}
